<?xml version="1.0" encoding="UTF-8"?>
<svg width="33px" height="33px" viewBox="0 0 33 33" version="1.1" xmlns="http://www.w3.org/2000/svg" xmlns:xlink="http://www.w3.org/1999/xlink">
    <!-- Generator: Sketch 62 (91390) - https://sketch.com -->
    <title>Artboard</title>
    <desc>Created with Sketch.</desc>
    <g id="Artboard" stroke="none" stroke-width="1" fill="none" fill-rule="evenodd">
        <rect id="Rectangle-Copy" fill="#F8F3F1" x="18" y="17.272114" width="7" height="7"></rect>
        <rect id="Rectangle-Copy-2" fill="#F8F3F1" x="7" y="17.272114" width="7" height="7"></rect>
        <path d="M19,18.2868134 L19,16.6192791 C19,13.96976 20.3102976,11.4916955 22.5,10 L22.5,10 L22.5,10" id="Path-11-Copy" stroke="#F8F3F1" stroke-width="2" stroke-linecap="square" stroke-linejoin="round"></path>
        <path d="M8,18.2868134 L8,16.6192791 C8,13.96976 9.31029764,11.4916955 11.5,10 L11.5,10 L11.5,10" id="Path-11-Copy-2" stroke="#F8F3F1" stroke-width="2" stroke-linecap="square" stroke-linejoin="round"></path>
    </g>
</svg>