<?xml version="1.0" encoding="UTF-8"?>
<svg width="35px" height="37px" viewBox="0 0 35 37" version="1.1" xmlns="http://www.w3.org/2000/svg" xmlns:xlink="http://www.w3.org/1999/xlink">
    <!-- Generator: Sketch 53.2 (72643) - https://sketchapp.com -->
    <title>Triangle Copy 2</title>
    <desc>Created with Sketch.</desc>
    <defs>
        <path d="M971.201596,312.754965 L978.115568,323.949014 C978.696011,324.88878 978.404723,326.121153 977.464957,326.701596 C977.149113,326.896677 976.785205,327 976.413972,327 L962.586028,327 C961.481459,327 960.586028,326.104569 960.586028,325 C960.586028,324.628766 960.689352,324.264859 960.884432,323.949014 L967.798404,312.754965 C968.378847,311.815199 969.61122,311.523911 970.550986,312.104355 C970.815472,312.267714 971.038237,312.490479 971.201596,312.754965 Z" id="path-1"></path>
        <filter x="-63.9%" y="-77.6%" width="227.8%" height="265.8%" filterUnits="objectBoundingBox" id="filter-2">
            <feOffset dx="0" dy="0" in="SourceAlpha" result="shadowOffsetOuter1"></feOffset>
            <feGaussianBlur stdDeviation="5" in="shadowOffsetOuter1" result="shadowBlurOuter1"></feGaussianBlur>
            <feColorMatrix values="0 0 0 0 0   0 0 0 0 0   0 0 0 0 0  0 0 0 1 0" type="matrix" in="shadowBlurOuter1"></feColorMatrix>
        </filter>
    </defs>
    <g id="Symbols" stroke="none" stroke-width="1" fill="none" fill-rule="evenodd">
        <g id="Projects/Bond/Image-Gallery" transform="translate(-951.000000, -300.000000)" fill-rule="nonzero">
            <g id="Triangle-Copy-2" transform="translate(969.500000, 318.500000) rotate(-270.000000) translate(-969.500000, -318.500000) ">
                <use fill="black" fill-opacity="1" filter="url(#filter-2)" xlink:href="#path-1"></use>
                <use fill="#FFFFFF" xlink:href="#path-1"></use>
            </g>
        </g>
    </g>
</svg>